{
  "variables": {
    "aws_access_key": "{{env `AWS_ACCESS_KEY_ID`}}",
    "aws_secret_key": "{{env `AWS_SECRET_ACCESS_KEY`}}",
    "aws_region": "eu-west-2"
  },
  
  "builders": [
    {
      "access_key": "{{user `aws_access_key`}}",
      "secret_key": "{{user `aws_secret_key`}}",
      "ami_name": "devylawyer-image",
      "instance_type": "t2.micro",
      "region": "{{user `aws_region`}}", 
      "source_ami_filter": {
        "filters": {
          "virtualization-type": "hvm",
          "name": "ubuntu/images/*ubuntu-xenial-16.04-amd64-server-*",
          "root-device-type": "ebs"
        },
        "owners": ["099720109477"],
        "most_recent": true
      },
      "ssh_username": "ubuntu",
      "type": "amazon-ebs"
    }
  ],
  "provisioners": [
    {
        "type": "ansible",
        "playbook_file": "./ansible/ansible_playbook.yml"     
    }
  ]
}
